ADATE_855,STR_855,I10P_855,APDRG_855,I9D_855,HCPCS_855
20153226,Sabino,0016070,,001,12053,233.29193
20150227,sabino,,1234567,001.1,12054,391.28058
20150228,,0016072,003,002.2,12055,599.7426,99
,Sabinsville,0016073,004,003.0,12056,203.98152
20150202,Sabir,,005,003.20,12057,314.19302
